{
    "name": "Folosofía",
    "image": "",
    "temas": [
      {
        "tema": "Introducción",
        "subtemas": [
            {
            "tema": "Segundo parcial",
            "url": "index.html"
            },
            {
            "tema": "Transversalidad de los aprendizajes",
            "url": "aprendizajes.html"
            },
            {
            "tema": "Proyecto formativo",
            "url": "proyecto_formativo.html"
            },
            {
            "tema": "Actividad de motivación",
            "url": "actividad_de_motivacion.html"
            },
            {
            "tema": "Evaluación diagnóstica",
            "url": "evaluacion_diagnostica.html"
            }
        ]
      },
      {
        "tema": "Naturaleza humana ",
        "subtemas": [
          {
            "tema": "Naturaleza humana ",
            "url": "tema2.0.0.html"
          },
          {
            "tema": "Actividad de aprendizaje 1",
            "url": "actividad_aprendizaje1.html"
          },
          {
            "tema": "Razón, emociones, relación mente-cuerpo, identidad personal, personalidad y sociedad",
            "url": "tema2.1.0.html"
          },
          {
            "tema": "Actividad de aprendizaje 2",
            "url": "actividad_aprendizaje2.html"
          },
          {
            "tema": "Naturaleza humana, bondad y maldad",
            "url": "tema2.2.0.html"
          },
          {
            "tema": "Actividad de aprendizaje 3",
            "url": "actividad_aprendizaje3.html"
          },
          {
            "tema": "Amor erótico, fraternal y amistad",
            "url": "tema2.3.0.html"
          },
          {
            "tema": "Actividad de aprendizaje 4",
            "url": "actividad_aprendizaje4.html"
          },
          {
            "tema": "Evaluación formativa",
            "url": "tema2.3.0EF.html"
          },
          {
            "tema": "Actividad de reforzamiento",
            "url": "tema2.3.0AR.html"
          },          
          {
            "tema": "Proyecto formativo",
            "url": "tema2.3.0PF.html"
          },
          {
            "tema": "DHS",
            "url": "tema2.3.0DHS.html"
          }
          
  
        ]
      },
      {
        "tema": "Arte, expresión y apreciación artística ",
        "subtemas": [
            {
                "tema": "Naturaleza, cultura, lenguaje, experiencia, placer, repulsión, belleza, fealdad, pasión, padecer y catarsis",
                "url": "tema2.4.0.html"
              },
              {
                "tema": "Actividad de aprendizaje 5",
                "url": "actividad_aprendizaje5.html"
              },
              {
                "tema": "Actividad de aprendizaje 6",
                "url": "actividad_aprendizaje6.html"
              },
              {
                "tema": "Gusto, sensibilidad, intelecto e imaginación ",
                "url": "tema2.5.0.html"
              },
              {
                "tema": "Actividad de aprendizaje 7",
                "url": "actividad_aprendizaje7.html"
              },
              {
                "tema": "Equilibrio estético, perfección, técnica, lección moral, creación, originalidad, unicidad y expresividad",
                "url": "tema2.6.0.html"
              },
              {
                "tema": "Actividad de aprendizaje 8",
                "url": "actividad_aprendizaje8.html"
              },
              {
                "tema": "Cultura y contracultura. Bellas artes. Vanguardias. Artesanía. Arte premoderno. Arte no occidental",
                "url": "tema2.7.0.html"
              },
              {
                "tema": "Actividad de aprendizaje 9",
                "url": "actividad_aprendizaje9.html"
              },
              {
                "tema": "Evaluación formativa",
                "url": "tema2.7.0EF.html"
              },
              {
                "tema": "Actividad de reforzamiento",
                "url": "tema2.7.0AR.html"
              },
              {
                "tema": "Actividad transversal",
                "url": "tema2.7.0AT.html"
              },
              {
                "tema": "Proyecto formativo",
                "url": "tema2.7.0PF.html"
              },
              {
                "tema": "DHS",
                "url": "tema2.7.0DHS.html"
              },
              {
                "tema": "Fomento a la lectura",
                "url": "tema2.7.0FL.html"
              },
              {
                "tema": "Orientate",
                "url": "tema2.7.0_orientate.html"
              },
              {
                "tema": "Registro de desarrollo de competencias",
                "url": "tema2.7.0RDC.html"
              },
              {
                "tema": "Evaluación sumativa",
                "url": "tema2.7.0ES.html"
              },
              {
                "tema": "Prueba tipo  PLANEA",
                "url": "tema2.7.0PTP.html"
              }
              
  
        ]
      }
  
    ]
  }